<?xml version="1.0" encoding="utf-8"?>
<!-- Generator: Adobe Illustrator 18.0.0, SVG Export Plug-In . SVG Version: 6.00 Build 0)  -->
<!DOCTYPE svg PUBLIC "-//W3C//DTD SVG 1.1//EN" "http://www.w3.org/Graphics/SVG/1.1/DTD/svg11.dtd">
<svg version="1.1" id="Слой_1" xmlns="http://www.w3.org/2000/svg" xmlns:xlink="http://www.w3.org/1999/xlink" x="0px" y="0px"
	 viewBox="0 0 595.3 841.9" enable-background="new 0 0 595.3 841.9" xml:space="preserve">
<linearGradient id="SVGID_1_" gradientUnits="userSpaceOnUse" x1="481.4667" y1="420.9953" x2="113.5333" y2="420.9953">
	<stop  offset="0" style="stop-color:#D76263"/>
	<stop  offset="0.4433" style="stop-color:#B3688E"/>
	<stop  offset="1" style="stop-color:#A269A8"/>
</linearGradient>
<path fill-rule="evenodd" clip-rule="evenodd" fill="#D5584D" stroke="url(#SVGID_1_)" stroke-width="2" stroke-miterlimit="10" d="
	M403.4,340c-0.1,0-0.2,0-0.3,0c-2.4,0-4.6-1.2-5.9-3.3C378,306.5,340.6,286,297.5,286c-43.1,0-80.6,20.6-99.7,50.8
	c-1.3,2-3.5,3.3-5.9,3.2c-0.5,0-0.9,0-1.4,0c-41.9,0-75.9,31.2-75.9,69.8s34,69.8,75.9,69.8c12.9,0,24.9-3,35.5-8.2l-24.8,19.8
	l15.3,1l-25,26.7l16.3,1l-33.5,36.4L236,511c0,0-16.3-0.7-15.9-1.5c0.5-0.9,29.6-27.9,29.6-27.9l-19.9,1.9l12.9-16
	c15.1,7.2,32.3,11.4,50.7,12l-18.1,19.3l16.3,1L258,536.2l61.7-45.3c0,0-16.3-0.7-15.9-1.5c0.2-0.4,5.5-5.4,11.5-11.1
	c13.6-1.8,26.3-5.7,37.8-11.3c2.2-1.1,4.7-0.9,6.8,0.4c2.6,1.6,5.4,3,8.2,4.4l-9.2,9.8l16.3,1L341.8,519l54.3-39.8
	c2.4,0.2,4.8,0.3,7.3,0.3c42.6,0,77.1-31.2,77.1-69.8S446,340,403.4,340z"/>
</svg>
